0.0000E+00 5.0000E-01   0.0000E+00
3.3379E-03 5.0000E-01   2.2217E-02
7.6685E-03 5.0000E-01   4.9342E-02
1.2474E-02 5.0000E-01   7.7255E-02
1.7618E-02 5.0000E-01   1.0461E-01
2.3027E-02 5.0000E-01   1.3068E-01
2.8659E-02 5.0000E-01   1.5498E-01
3.4482E-02 5.0000E-01   1.7728E-01
4.0475E-02 5.0000E-01   1.9746E-01
4.6619E-02 5.0000E-01   2.1559E-01
5.2902E-02 5.0000E-01   2.3181E-01
5.9312E-02 5.0000E-01   2.4634E-01
6.5840E-02 5.0000E-01   2.5944E-01
7.2478E-02 5.0000E-01   2.7136E-01
7.9219E-02 5.0000E-01   2.8234E-01
8.6056E-02 5.0000E-01   2.9254E-01
9.2986E-02 5.0000E-01   3.0208E-01
1.0000E-01 5.0000E-01   3.1102E-01
1.0710E-01 5.0000E-01   3.1935E-01
1.1428E-01 5.0000E-01   3.2704E-01
1.2154E-01 5.0000E-01   3.3401E-01
1.2887E-01 5.0000E-01   3.4018E-01
1.3626E-01 5.0000E-01   3.4545E-01
1.4373E-01 5.0000E-01   3.4975E-01
1.5126E-01 5.0000E-01   3.5297E-01
1.5886E-01 5.0000E-01   3.5508E-01
1.6651E-01 5.0000E-01   3.5603E-01
1.7423E-01 5.0000E-01   3.5579E-01
1.8200E-01 5.0000E-01   3.5437E-01
1.8982E-01 5.0000E-01   3.5180E-01
1.9771E-01 5.0000E-01   3.4811E-01
2.0564E-01 5.0000E-01   3.4338E-01
2.1363E-01 5.0000E-01   3.3769E-01
2.2166E-01 5.0000E-01   3.3114E-01
2.2975E-01 5.0000E-01   3.2382E-01
2.3788E-01 5.0000E-01   3.1585E-01
2.4606E-01 5.0000E-01   3.0734E-01
2.5428E-01 5.0000E-01   2.9840E-01
2.6255E-01 5.0000E-01   2.8913E-01
2.7086E-01 5.0000E-01   2.7962E-01
2.7922E-01 5.0000E-01   2.6997E-01
2.8762E-01 5.0000E-01   2.6023E-01
2.9606E-01 5.0000E-01   2.5046E-01
3.0453E-01 5.0000E-01   2.4070E-01
3.1305E-01 5.0000E-01   2.3099E-01
3.2161E-01 5.0000E-01   2.2134E-01
3.3020E-01 5.0000E-01   2.1175E-01
3.3884E-01 5.0000E-01   2.0224E-01
3.4751E-01 5.0000E-01   1.9279E-01
3.5621E-01 5.0000E-01   1.8338E-01
3.6495E-01 5.0000E-01   1.7401E-01
3.7373E-01 5.0000E-01   1.6466E-01
3.8254E-01 5.0000E-01   1.5532E-01
3.9139E-01 5.0000E-01   1.4596E-01
4.0026E-01 5.0000E-01   1.3659E-01
4.0918E-01 5.0000E-01   1.2717E-01
4.1812E-01 5.0000E-01   1.1771E-01
4.2709E-01 5.0000E-01   1.0820E-01
4.3610E-01 5.0000E-01   9.8626E-02
4.4514E-01 5.0000E-01   8.8987E-02
4.5421E-01 5.0000E-01   7.9290E-02
4.6331E-01 5.0000E-01   6.9521E-02
4.7244E-01 5.0000E-01   5.9694E-02
4.8160E-01 5.0000E-01   4.9796E-02
4.9078E-01 5.0000E-01   3.9844E-02
5.0000E-01 5.0000E-01   2.9824E-02
5.0922E-01 5.0000E-01   1.9787E-02
5.1840E-01 5.0000E-01   9.7478E-03
5.2756E-01 5.0000E-01  -2.7036E-04
5.3669E-01 5.0000E-01  -1.0285E-02
5.4579E-01 5.0000E-01  -2.0273E-02
5.5486E-01 5.0000E-01  -3.0254E-02
5.6390E-01 5.0000E-01  -4.0203E-02
5.7291E-01 5.0000E-01  -5.0140E-02
5.8188E-01 5.0000E-01  -6.0042E-02
5.9082E-01 5.0000E-01  -6.9930E-02
5.9974E-01 5.0000E-01  -7.9777E-02
6.0861E-01 5.0000E-01  -8.9609E-02
6.1746E-01 5.0000E-01  -9.9396E-02
6.2627E-01 5.0000E-01  -1.0916E-01
6.3505E-01 5.0000E-01  -1.1888E-01
6.4379E-01 5.0000E-01  -1.2858E-01
6.5249E-01 5.0000E-01  -1.3822E-01
6.6116E-01 5.0000E-01  -1.4782E-01
6.6980E-01 5.0000E-01  -1.5736E-01
6.7839E-01 5.0000E-01  -1.6686E-01
6.8695E-01 5.0000E-01  -1.7628E-01
6.9547E-01 5.0000E-01  -1.8564E-01
7.0394E-01 5.0000E-01  -1.9491E-01
7.1238E-01 5.0000E-01  -2.0410E-01
7.2078E-01 5.0000E-01  -2.1320E-01
7.2914E-01 5.0000E-01  -2.2222E-01
7.3745E-01 5.0000E-01  -2.3115E-01
7.4572E-01 5.0000E-01  -2.4003E-01
7.5394E-01 5.0000E-01  -2.4886E-01
7.6212E-01 5.0000E-01  -2.5770E-01
7.7025E-01 5.0000E-01  -2.6660E-01
7.7834E-01 5.0000E-01  -2.7566E-01
7.8637E-01 5.0000E-01  -2.8497E-01
7.9436E-01 5.0000E-01  -2.9468E-01
8.0229E-01 5.0000E-01  -3.0495E-01
8.1018E-01 5.0000E-01  -3.1597E-01
8.1800E-01 5.0000E-01  -3.2791E-01
8.2577E-01 5.0000E-01  -3.4099E-01
8.3349E-01 5.0000E-01  -3.5533E-01
8.4114E-01 5.0000E-01  -3.7105E-01
8.4874E-01 5.0000E-01  -3.8810E-01
8.5627E-01 5.0000E-01  -4.0634E-01
8.6374E-01 5.0000E-01  -4.2539E-01
8.7113E-01 5.0000E-01  -4.4468E-01
8.7846E-01 5.0000E-01  -4.6335E-01
8.8572E-01 5.0000E-01  -4.8034E-01
8.9290E-01 5.0000E-01  -4.9439E-01
9.0000E-01 5.0000E-01  -5.0412E-01
9.0701E-01 5.0000E-01  -5.0821E-01
9.1394E-01 5.0000E-01  -5.0548E-01
9.2078E-01 5.0000E-01  -4.9510E-01
9.2752E-01 5.0000E-01  -4.7669E-01
9.3416E-01 5.0000E-01  -4.5043E-01
9.4069E-01 5.0000E-01  -4.1701E-01
9.4710E-01 5.0000E-01  -3.7765E-01
9.5338E-01 5.0000E-01  -3.3389E-01
9.5953E-01 5.0000E-01  -2.8754E-01
9.6552E-01 5.0000E-01  -2.4038E-01
9.7134E-01 5.0000E-01  -1.9413E-01
9.7697E-01 5.0000E-01  -1.5026E-01
9.8238E-01 5.0000E-01  -1.0994E-01
9.8753E-01 5.0000E-01  -7.4031E-02
9.9233E-01 5.0000E-01  -4.3147E-02
9.9666E-01 5.0000E-01  -1.7805E-02
1.0000E+00 5.0000E-01   0.0000E+00