0.0000E+00 5.0000E-01   0.0000E+00
3.3379E-03 5.0000E-01   1.3136E-02
7.6685E-03 5.0000E-01   2.9441E-02
1.2474E-02 5.0000E-01   4.6590E-02
1.7618E-02 5.0000E-01   6.3863E-02
2.3027E-02 5.0000E-01   8.0873E-02
2.8659E-02 5.0000E-01   9.7363E-02
3.4482E-02 5.0000E-01   1.1317E-01
4.0475E-02 5.0000E-01   1.2818E-01
4.6619E-02 5.0000E-01   1.4232E-01
5.2902E-02 5.0000E-01   1.5557E-01
5.9312E-02 5.0000E-01   1.6791E-01
6.5840E-02 5.0000E-01   1.7936E-01
7.2478E-02 5.0000E-01   1.8996E-01
7.9219E-02 5.0000E-01   1.9976E-01
8.6056E-02 5.0000E-01   2.0881E-01
9.2986E-02 5.0000E-01   2.1718E-01
1.0000E-01 5.0000E-01   2.2494E-01
1.0710E-01 5.0000E-01   2.3215E-01
1.1428E-01 5.0000E-01   2.3887E-01
1.2154E-01 5.0000E-01   2.4515E-01
1.2887E-01 5.0000E-01   2.5103E-01
1.3626E-01 5.0000E-01   2.5656E-01
1.4373E-01 5.0000E-01   2.6174E-01
1.5126E-01 5.0000E-01   2.6660E-01
1.5886E-01 5.0000E-01   2.7114E-01
1.6651E-01 5.0000E-01   2.7534E-01
1.7423E-01 5.0000E-01   2.7921E-01
1.8200E-01 5.0000E-01   2.8271E-01
1.8982E-01 5.0000E-01   2.8582E-01
1.9771E-01 5.0000E-01   2.8851E-01
2.0564E-01 5.0000E-01   2.9074E-01
2.1363E-01 5.0000E-01   2.9250E-01
2.2166E-01 5.0000E-01   2.9373E-01
2.2975E-01 5.0000E-01   2.9442E-01
2.3788E-01 5.0000E-01   2.9453E-01
2.4606E-01 5.0000E-01   2.9404E-01
2.5428E-01 5.0000E-01   2.9292E-01
2.6255E-01 5.0000E-01   2.9116E-01
2.7086E-01 5.0000E-01   2.8874E-01
2.7922E-01 5.0000E-01   2.8566E-01
2.8762E-01 5.0000E-01   2.8192E-01
2.9606E-01 5.0000E-01   2.7751E-01
3.0453E-01 5.0000E-01   2.7245E-01
3.1305E-01 5.0000E-01   2.6674E-01
3.2161E-01 5.0000E-01   2.6042E-01
3.3020E-01 5.0000E-01   2.5351E-01
3.3884E-01 5.0000E-01   2.4603E-01
3.4751E-01 5.0000E-01   2.3801E-01
3.5621E-01 5.0000E-01   2.2950E-01
3.6495E-01 5.0000E-01   2.2052E-01
3.7373E-01 5.0000E-01   2.1113E-01
3.8254E-01 5.0000E-01   2.0136E-01
3.9139E-01 5.0000E-01   1.9125E-01
4.0026E-01 5.0000E-01   1.8085E-01
4.0918E-01 5.0000E-01   1.7019E-01
4.1812E-01 5.0000E-01   1.5931E-01
4.2709E-01 5.0000E-01   1.4825E-01
4.3610E-01 5.0000E-01   1.3704E-01
4.4514E-01 5.0000E-01   1.2572E-01
4.5421E-01 5.0000E-01   1.1430E-01
4.6331E-01 5.0000E-01   1.0281E-01
4.7244E-01 5.0000E-01   9.1278E-02
4.8160E-01 5.0000E-01   7.9715E-02
4.9078E-01 5.0000E-01   6.8134E-02
5.0000E-01 5.0000E-01   5.6548E-02
5.0922E-01 5.0000E-01   4.5000E-02
5.1840E-01 5.0000E-01   3.3530E-02
5.2756E-01 5.0000E-01   2.2139E-02
5.3669E-01 5.0000E-01   1.0828E-02
5.4579E-01 5.0000E-01  -4.0636E-04
5.5486E-01 5.0000E-01  -1.1568E-02
5.6390E-01 5.0000E-01  -2.2662E-02
5.7291E-01 5.0000E-01  -3.3697E-02
5.8188E-01 5.0000E-01  -4.4681E-02
5.9082E-01 5.0000E-01  -5.5625E-02
5.9974E-01 5.0000E-01  -6.6541E-02
6.0861E-01 5.0000E-01  -7.7444E-02
6.1746E-01 5.0000E-01  -8.8350E-02
6.2627E-01 5.0000E-01  -9.9277E-02
6.3505E-01 5.0000E-01  -1.1025E-01
6.4379E-01 5.0000E-01  -1.2128E-01
6.5249E-01 5.0000E-01  -1.3242E-01
6.6116E-01 5.0000E-01  -1.4367E-01
6.6980E-01 5.0000E-01  -1.5508E-01
6.7839E-01 5.0000E-01  -1.6668E-01
6.8695E-01 5.0000E-01  -1.7851E-01
6.9547E-01 5.0000E-01  -1.9060E-01
7.0394E-01 5.0000E-01  -2.0300E-01
7.1238E-01 5.0000E-01  -2.1573E-01
7.2078E-01 5.0000E-01  -2.2883E-01
7.2914E-01 5.0000E-01  -2.4232E-01
7.3745E-01 5.0000E-01  -2.5621E-01
7.4572E-01 5.0000E-01  -2.7051E-01
7.5394E-01 5.0000E-01  -2.8519E-01
7.6212E-01 5.0000E-01  -3.0020E-01
7.7025E-01 5.0000E-01  -3.1549E-01
7.7834E-01 5.0000E-01  -3.3094E-01
7.8637E-01 5.0000E-01  -3.4641E-01
7.9436E-01 5.0000E-01  -3.6173E-01
8.0229E-01 5.0000E-01  -3.7667E-01
8.1018E-01 5.0000E-01  -3.9097E-01
8.1800E-01 5.0000E-01  -4.0433E-01
8.2577E-01 5.0000E-01  -4.1642E-01
8.3349E-01 5.0000E-01  -4.2687E-01
8.4114E-01 5.0000E-01  -4.3533E-01
8.4874E-01 5.0000E-01  -4.4143E-01
8.5627E-01 5.0000E-01  -4.4483E-01
8.6374E-01 5.0000E-01  -4.4523E-01
8.7113E-01 5.0000E-01  -4.4239E-01
8.7846E-01 5.0000E-01  -4.3615E-01
8.8572E-01 5.0000E-01  -4.2645E-01
8.9290E-01 5.0000E-01  -4.1331E-01
9.0000E-01 5.0000E-01  -3.9687E-01
9.0701E-01 5.0000E-01  -3.7737E-01
9.1394E-01 5.0000E-01  -3.5514E-01
9.2078E-01 5.0000E-01  -3.3060E-01
9.2752E-01 5.0000E-01  -3.0420E-01
9.3416E-01 5.0000E-01  -2.7645E-01
9.4069E-01 5.0000E-01  -2.4788E-01
9.4710E-01 5.0000E-01  -2.1901E-01
9.5338E-01 5.0000E-01  -1.9031E-01
9.5953E-01 5.0000E-01  -1.6225E-01
9.6552E-01 5.0000E-01  -1.3522E-01
9.7134E-01 5.0000E-01  -1.0957E-01
9.7697E-01 5.0000E-01  -8.5597E-02
9.8238E-01 5.0000E-01  -6.3533E-02
9.8753E-01 5.0000E-01  -4.3575E-02
9.9233E-01 5.0000E-01  -2.5938E-02
9.9666E-01 5.0000E-01  -1.0942E-02
1.0000E+00 5.0000E-01   0.0000E+00